[gd_scene load_steps=4 format=2]

[ext_resource path="res://Battle Phase.gd" type="Script" id=1]
[ext_resource path="res://Preparation Phase.gd" type="Script" id=2]
[ext_resource path="res://Board.gd" type="Script" id=3]

[node name="Board" type="Node"]
script = ExtResource( 3 )

[node name="Preparation Phase" type="Node" parent="."]
script = ExtResource( 2 )

[node name="Battle Phase" type="Node" parent="."]
script = ExtResource( 1 )

[connection signal="all_pieces_placed" from="Preparation Phase" to="." method="switch_to_battle_phase"]
[connection signal="opponent_placed_a_piece" from="Preparation Phase" to="." method="opponent_placed_a_piece"]
[connection signal="players_turn" from="Preparation Phase" to="." method="players_turn"]
[connection signal="opponent_moved" from="Battle Phase" to="." method="opponent_moved"]
