; Engine configuration file.
; It's best edited using the editor UI and not directly,
; since the parameters that go here are not all obvious.
;
; Format:
;   [section] ; section goes between []
;   param=value ; assign values to parameters

config_version=4

_global_script_classes=[ {
"base": "Node",
"class": "Global",
"language": "GDScript",
"path": "res://Global.gd"
} ]
_global_script_class_icons={
"Global": ""
}

[application]

config/name="Board Game Server"
run/main_scene="res://Main.tscn"
config/icon="res://icon.png"

[editor_plugins]

enabled=PoolStringArray( "res://addons/Search In Filesystem Shortcut/plugin.cfg" )

[rendering]

quality/driver/driver_name="GLES2"
vram_compression/import_etc=true
vram_compression/import_etc2=false
environment/default_environment="res://default_env.tres"
